<svg width="267" height="433" viewBox="0 0 267 433" fill="none" xmlns="http://www.w3.org/2000/svg">
<path d="M-54.3306 433C15.6398 387.666 73.6522 325.038 108.718 249.077C137.32 188.066 150.006 120.266 148.39 52.9517C148.147 42.5272 147.582 31.9412 146.612 21.5975C146.127 16.3449 145.562 11.173 144.996 5.92041C161.075 64.8307 160.832 128.105 146.37 187.419C144.188 196.47 141.522 205.601 138.694 214.41C137.886 216.915 135.705 223.218 134.816 225.804C133.846 228.309 131.422 234.612 130.453 237.036C129.483 239.38 126.817 245.683 125.766 248.107C124.635 250.532 121.807 256.754 120.757 259.097C112.031 277.037 101.931 294.735 90.3773 311.058C53.8569 363.342 3.68181 406.495 -54.3306 433Z" fill="#BE0E7C"/>
<path d="M152.349 72.7501C148.955 66.0429 143.057 56.8306 133.038 49.3153C104.355 27.8199 68.0771 39.2141 63.6333 40.6687C71.9554 48.6688 89.1652 62.7297 114.94 69.4369C129.968 73.3158 143.057 73.4774 152.349 72.7501Z" fill="#BE0E7C"/>
<path d="M148.632 48.992C155.985 50.689 166.811 51.9011 179.012 48.9112C213.755 40.507 227.975 5.27388 229.672 0.829346C218.199 2.20311 196.383 6.48603 174.891 22.2439C162.448 31.2946 153.965 41.3151 148.632 48.992Z" fill="#BE0E7C"/>
<path d="M148.713 95.5383C155.581 98.6091 165.923 101.922 178.446 101.357C214.239 99.8213 235.085 67.9822 237.59 64.0225C226.117 63.1336 203.817 63.1336 179.658 74.3662C165.761 80.831 155.5 89.0736 148.713 95.5383Z" fill="#BE0E7C"/>
<path d="M148.632 139.256C156.308 144.105 167.862 149.923 182.405 151.459C223.854 155.984 251.083 122.206 254.396 117.923C241.226 114.852 215.532 110.892 186.445 119.781C169.72 124.953 157.116 132.872 148.632 139.256Z" fill="#BE0E7C"/>
<path d="M131.907 205.44C141.683 211.662 156.469 219.016 175.053 221.036C227.975 226.854 262.718 183.621 267 178.207C250.113 174.328 217.39 169.237 180.304 180.631C158.812 187.177 142.734 197.197 131.907 205.44Z" fill="#BE0E7C"/>
<path d="M107.264 253.36C115.586 261.441 128.594 271.623 146.289 277.36C196.949 293.846 239.771 258.613 245.023 254.168C229.348 246.895 198.241 235.259 159.701 238.895C137.32 240.996 119.545 247.542 107.264 253.36Z" fill="#BE0E7C"/>
<path d="M85.9333 302.573C92.3163 312.189 102.901 324.957 118.979 334.331C164.953 361.079 214.32 335.786 220.38 332.553C206.564 322.129 178.689 304.189 140.229 299.502C117.929 296.836 99.1033 299.421 85.9333 302.573Z" fill="#BE0E7C"/>
<path d="M57.9775 343.382C62.0174 357.12 69.7739 376.11 85.3678 393.08C129.887 441.647 197.434 429.929 205.837 428.313C193.313 410.939 167.054 379.423 123.262 359.786C97.8914 348.392 74.7834 344.594 57.9775 343.382Z" fill="#BE0E7C"/>
<path d="M148.632 124.549C144.027 115.337 136.028 102.973 122.373 92.7101C83.4286 63.5377 34.1423 78.9724 28.0017 80.9926C39.3941 91.8211 62.7445 111.054 97.8105 120.105C118.091 125.276 135.866 125.438 148.632 124.549Z" fill="#BE0E7C"/>
<path d="M139.502 176.025C134.331 165.681 125.362 151.701 110.011 140.226C66.2189 107.417 10.792 124.792 3.92419 127.054C16.6902 139.257 42.9493 160.833 82.3783 171.015C105.244 176.914 125.282 177.156 139.502 176.025Z" fill="#BE0E7C"/>
<path d="M122.131 231.541C116.071 219.42 105.486 203.015 87.4685 189.52C36.0815 150.974 -29.0411 171.419 -37.04 174.005C-22.0117 188.308 8.772 213.682 55.0688 225.561C81.8935 232.511 105.406 232.753 122.131 231.541Z" fill="#BE0E7C"/>
<path d="M94.0131 291.017C87.3877 277.764 75.7529 259.744 56.0383 244.956C-0.358153 202.692 -71.7021 225.076 -80.509 227.986C-64.1072 243.663 -30.2531 271.461 20.4875 284.552C49.817 292.149 75.5913 292.391 94.0131 291.017Z" fill="#BE0E7C"/>
<path d="M53.3721 344.514C47.1507 332.069 36.3238 315.26 17.8213 301.361C-34.9393 261.764 -101.759 282.775 -110 285.442C-94.6485 300.149 -62.976 326.17 -15.4672 338.372C12.0039 345.564 36.0814 345.807 53.3721 344.514Z" fill="#BE0E7C"/>
</svg>
