<svg width="170" height="76" viewBox="0 0 170 76" fill="none" xmlns="http://www.w3.org/2000/svg">
<g filter="url(#filter0_b_1_261)">
<path d="M169 1V47.2302L85 74.947L1 47.2302V1H169Z" fill="#2BB2A3" fill-opacity="0.8" stroke="#2BB2A3" stroke-width="2"/>
</g>
<defs>
<filter id="filter0_b_1_261" x="-4" y="-4" width="178" height="84" filterUnits="userSpaceOnUse" color-interpolation-filters="sRGB">
<feFlood flood-opacity="0" result="BackgroundImageFix"/>
<feGaussianBlur in="BackgroundImageFix" stdDeviation="2"/>
<feComposite in2="SourceAlpha" operator="in" result="effect1_backgroundBlur_1_261"/>
<feBlend mode="normal" in="SourceGraphic" in2="effect1_backgroundBlur_1_261" result="shape"/>
</filter>
</defs>
</svg>
